2 Small Worlds and Large Worlds – *Statistical rethinking* 2 with rstan and the tidyverse
…
We’ve generated the values for position (i.e., the \(x\)-axis), in such a way that they’re all justified to the right, so to speak. But we’d like to center them. For draw == 1, we’ll need to subtract 0.5 from each. For draw == 2, we need to reduce the scale by a factor of 4 and we’ll then need to reduce the scale by another factor of 4 for draw == 3. The ifelse() function will be of use for that.

d <- d |> 
  mutate(denominator = ifelse(draw == 1, .5,
                              ifelse(draw == 2, .5 / 4,
                                     .5 / 4^2))) |> 
  mutate(position = position - denominator)

d

# A tibble: 84 × 4
   position  draw fill  denominator
      <dbl> <int> <chr>       <dbl>
 1    0.5       1 b           0.5  
 2    1.5       1 w           0.5  
 3    2.5       1 w           0.5  
 4    3.5       1 w           0.5  
 5    0.125     2 b           0.125
 6    0.375     2 w           0.125
 7    0.625     2 w           0.125
 8    0.875     2 w           0.125
 9    1.12      2 b           0.125
10    1.38      2 w           0.125
# ℹ 74 more rows
…
