3 Sampling the Imaginary – *Statistical rethinking* 2 with brms and the tidyverse
…
# How many grid points would you like?
n <- 1000
n_success <- 6
n_trials  <- 9

d <- tibble(p_grid = seq(from = 0, to = 1, length.out = n),
            # Note we're still using a flat uniform prior
            prior  = 1) |> 
  mutate(likelihood = dbinom(n_success, size = n_trials, prob = p_grid)) |> 
  mutate(posterior = (likelihood * prior) / sum(likelihood * prior))

d

# A tibble: 1,000 × 4
    p_grid prior likelihood posterior
     <dbl> <dbl>      <dbl>     <dbl>
 1 0           1   0         0       
 2 0.00100     1   8.43e-17  8.43e-19
 3 0.00200     1   5.38e-15  5.38e-17
 4 0.00300     1   6.11e-14  6.11e-16
 5 0.00400     1   3.42e-13  3.42e-15
 6 0.00501     1   1.30e-12  1.30e-14
 7 0.00601     1   3.87e-12  3.88e-14
 8 0.00701     1   9.73e-12  9.74e-14
 9 0.00801     1   2.16e-11  2.16e-13
10 0.00901     1   4.37e-11  4.38e-13
# ℹ 990 more rows
…
# Update `d`
d <- d |> 
  mutate(likelihood = dbinom(n_success, size = n_trials, prob = p_grid)) |> 
  mutate(posterior  = (likelihood * prior) / sum(likelihood * prior))

# Make the next part reproducible
set.seed(3)

# Here's our new samples tibble
(
  samples <- d |> 
    slice_sample(n = n_samples, weight_by = posterior, replace = T)
)

# A tibble: 10,000 × 4
   p_grid prior likelihood posterior
    <dbl> <dbl>      <dbl>     <dbl>
 1  0.717     1     0.368   0.00147 
 2  0.652     1     0.277   0.00111 
 3  0.548     1     0.164   0.000656
 4  1         1     1       0.00400 
 5  0.991     1     0.973   0.00389 
 6  0.788     1     0.489   0.00195 
 7  0.940     1     0.830   0.00332 
 8  0.817     1     0.545   0.00218 
 9  0.955     1     0.871   0.00348 
10  0.449     1     0.0908  0.000363
# ℹ 9,990 more rows
…
For convenience, we’ll primarily stick to the PI-based intervals in this ebook.

3.2.2.1 Rethinking: What do compatibility intervals mean?

At the start of this section, McElreath poked a little at frequentist confidence intervals. For an introduction to confidence intervals from the perspective of a frequentist, you might check out Cumming’s (2014) The new statistics: Why and how and the works referenced therein. Though their definition isn’t the most intuitive, I usually use confidence intervals when I wear my frequentist hat.

3.2.3 Point estimates

We’ve been calling point estimates measures of central tendency. If we arrange() our d tibble in descending order by posterior, we’ll see the corresponding p_grid value for its MAP estimate.

d |> 
  arrange(desc(posterior))

# A tibble: 1,000 × 4
   p_grid prior likelihood posterior
    <dbl> <dbl>      <dbl>     <dbl>
 1  1         1      1       0.00400
 2  0.999     1      0.997   0.00398
 3  0.998     1      0.994   0.00397
 4  0.997     1      0.991   0.00396
 5  0.996     1      0.988   0.00395
 6  0.995     1      0.985   0.00394
 7  0.994     1      0.982   0.00392
 8  0.993     1      0.979   0.00391
 9  0.992     1      0.976   0.00390
10  0.991     1      0.973   0.00389
# ℹ 990 more rows
…
make_loss <- function(our_d) {
  d |> 
    mutate(loss = posterior * abs(our_d - p_grid)) |> 
    summarise(weighted_average_loss = sum(loss))
}

(
  l <- d |> 
  select(p_grid) |> 
  rename(decision = p_grid) |> 
  mutate(weighted_average_loss = purrr::map(decision, make_loss)) |> 
  unnest(weighted_average_loss) 
)

# A tibble: 1,000 × 2
   decision weighted_average_loss
      <dbl>                 <dbl>
 1  0                       0.800
 2  0.00100                 0.799
 3  0.00200                 0.798
 4  0.00300                 0.797
 5  0.00400                 0.796
 6  0.00501                 0.795
 7  0.00601                 0.794
 8  0.00701                 0.793
 9  0.00801                 0.792
10  0.00901                 0.791
# ℹ 990 more rows
…
# How many grid points would you like?
n <- 1001
n_success <- 6
n_trials  <- 9

d <- tibble(p_grid = seq(from = 0, to = 1, length.out = n),
            # Note we're still using a flat uniform prior
            prior  = 1) |> 
  mutate(likelihood = dbinom(n_success, size = n_trials, prob = p_grid)) |> 
  mutate(posterior = (likelihood * prior) / sum(likelihood * prior))

d

# A tibble: 1,001 × 4
   p_grid prior likelihood posterior
    <dbl> <dbl>      <dbl>     <dbl>
 1  0         1   0         0       
 2  0.001     1   8.37e-17  8.37e-19
 3  0.002     1   5.34e-15  5.34e-17
 4  0.003     1   6.07e-14  6.07e-16
 5  0.004     1   3.40e-13  3.40e-15
 6  0.005     1   1.29e-12  1.29e-14
 7  0.006     1   3.85e-12  3.85e-14
 8  0.007     1   9.68e-12  9.68e-14
 9  0.008     1   2.15e-11  2.15e-13
10  0.009     1   4.34e-11  4.34e-13
# ℹ 991 more rows
…
