5 The Many Variables & The Spurious Waffles – *Statistical rethinking* 2 with brms and the tidyverse
…
Finally, here’s how we might visualize the results in a faceted coefficient plot.

as_draws_df(b5.11) |> 
  pivot_longer(starts_with("b_")) |> 
  mutate(name = str_remove(name, "b_") |> 
           str_remove("clade") |> 
           str_remove("house") |> 
           str_replace("World", " World ")) 

Warning: Dropping 'draws_df' class as required metadata was removed.

# A tibble: 32,000 × 8
   sigma lprior  lp__ .chain .iteration .draw name                  value
   <dbl>  <dbl> <dbl>  <int>      <int> <int> <chr>                 <dbl>
 1 0.906  -8.13 -42.0      1          1     1 a_Ape              -0.975  
 2 0.906  -8.13 -42.0      1          1     1 a_New World Monkey -0.316  
 3 0.906  -8.13 -42.0      1          1     1 a_Old World Monkey  0.181  
 4 0.906  -8.13 -42.0      1          1     1 a_Strepsirrhine    -0.539  
 5 0.906  -8.13 -42.0      1          1     1 h_Gryffindor        0.143  
 6 0.906  -8.13 -42.0      1          1     1 h_Hufflepuff        0.456  
 7 0.906  -8.13 -42.0      1          1     1 h_Ravenclaw         0.00633
 8 0.906  -8.13 -42.0      1          1     1 h_Slytherin         1.05   
 9 0.621  -6.22 -38.1      1          2     2 a_Ape              -0.371  
10 0.621  -6.22 -38.1      1          2     2 a_New World Monkey  0.465  
# ℹ 31,990 more rows
…
