6 The Haunted DAG & The Causal Terror – *Statistical rethinking* 2 with brms and the tidyverse
…
update_population <- function(pop, n_births = 20, aom = 18, max_age = 65) {
  pop |>
    mutate(a = a + 1,  # Everyone gets one year older
           # Some people get married
           m = ifelse(m >= 1, 1, (a >= aom) * rbinom(n(), 1, rethinking::inv_logit(h - 4)))) |>
    filter(a <= max_age) |>         # Old people die
    bind_rows(new_borns(n_births))  # New people are born
}

Here’s what it looks like if we start with an initial new_borns() and pump them into update_population().

new_borns() |> 
  update_population()

# A tibble: 40 × 3
       a     m      h
   <dbl> <dbl>  <dbl>
 1     2     0 -2    
 2     2     0 -1.79 
 3     2     0 -1.58 
 4     2     0 -1.37 
 5     2     0 -1.16 
 6     2     0 -0.947
 7     2     0 -0.737
 8     2     0 -0.526
 9     2     0 -0.316
10     2     0 -0.105
# ℹ 30 more rows
…
