7 Ulysses’ Compass – *Statistical rethinking* 2 with brms and the tidyverse
…
prob

# A tibble: 28,000 × 4
       s species     logprob  prob
   <int> <chr>         <dbl> <dbl>
 1     1 afarensis    0.0602 1.06 
 2     1 africanus   -0.0458 0.955
 3     1 habilis     -0.491  0.612
 4     1 boisei       0.152  1.16 
 5     1 rudolfensis  0.197  1.22 
 6     1 ergaster     0.130  1.14 
 7     1 sapiens     -0.629  0.533
 8     2 afarensis   -0.121  0.886
 9     2 africanus   -0.208  0.812
10     2 habilis     -0.575  0.563
# ℹ 27,990 more rows
…
