8 Conditional Manatees – *Statistical rethinking* 2 with rstan and the tidyverse
…
As in the text (p. 428), our results suggest one the cases had Pareto \(k\) value just above the 0.5 threshold. We can confirm by rank ordering them and taking a look at the top values.

tibble(k   = b8.3$criteria$loo$diagnostics$pareto_k,
       row = 1:170) |> 
  arrange(desc(k))

# A tibble: 170 × 2
       k   row
   <dbl> <int>
 1 0.615   145
 2 0.558    93
 3 0.363    27
 4 0.339   133
 5 0.274     8
 6 0.265    35
 7 0.252   144
 8 0.223    63
 9 0.219   167
10 0.218   117
# ℹ 160 more rows
…
