15 Missing Data and Other Opportunities – *Statistical rethinking* 2 with rstan and the tidyverse
…
n <- 100

set.seed(15)

d <- tibble(s = rnorm(n, mean = 0, sd = 1)) |> 
  mutate(h   = rbinom(n, size = 10, plogis(s)),
         d_a = rbinom(n, size = 1, prob = 0.5),
         d_b = ifelse(s > 0, 1, 0)) |>
  mutate(hm_a = ifelse(d_a == 1, NA, h),
         hm_b = ifelse(d_b == 1, NA, h))

d

# A tibble: 100 × 6
         s     h   d_a   d_b  hm_a  hm_b
     <dbl> <int> <int> <dbl> <int> <int>
 1  0.259      6     0     1     6    NA
 2  1.83       8     0     1     8    NA
 3 -0.340      4     0     0     4     4
 4  0.897      6     1     1    NA    NA
 5  0.488      8     1     1    NA    NA
 6 -1.26       3     1     0    NA     3
 7  0.0228     3     1     1    NA    NA
 8  1.09       6     1     1    NA    NA
 9 -0.132      6     0     0     6     6
10 -1.08       3     1     0    NA     3
# ℹ 90 more rows
…
The situation in the third DAG is more complicated. Now homework is conditional on both studying and how noisy it is in a students home, \(X\). Also, our new variable \(X\) isn’t measured and whether the dogs eat the homework is also conditional on that unmeasured \(X\). Here’s the new data simulation.

n <- 1000

set.seed(501)

d <- tibble(x = rnorm(n, mean = 0, sd = 1),
            s = rnorm(n, mean = 0, sd = 1)) |> 
  mutate(h = rbinom(n, size = 10, plogis(2 + s - 2 * x)),
         d = ifelse(x > 1, 1, 0)) |>
  mutate(hm = ifelse(d == 1, NA, h))

d

# A tibble: 1,000 × 5
         x      s     h     d    hm
     <dbl>  <dbl> <int> <dbl> <int>
 1  0.577   1.15     10     0    10
 2  0.617  -0.786     7     0     7
 3  0.452   0.958     9     0     9
 4  0.226   0.754     8     0     8
 5 -0.845   0.689    10     0    10
 6 -1.43    0.176    10     0    10
 7 -1.65    0.280    10     0    10
 8  0.0356 -0.397     8     0     8
 9  0.184   0.261     7     0     7
10  1.22   -1.01      2     1    NA
# ℹ 990 more rows
…
Draws were sampled using sampling(NUTS). For each parameter, Bulk_ESS
and Tail_ESS are effective sample size measures, and Rhat is the potential
scale reduction factor on split chains (at convergence, Rhat = 1).

Interestingly, both the intercept and the coefficient for s are now less biased. Because both \(H\) and \(D\) are conditional on \(X\), omitting cases based on \(X\) resulted in a model that conditional on \(X\), even though \(X\) wasn’t directly in the statistical model. This won’t always be the case. Consider what happens when we have a different missing data mechanism.

d <- d |> 
  mutate(d = ifelse(abs(x) < 1, 1, 0)) |>
  mutate(hm = ifelse(d == 1, NA, h))

d

# A tibble: 1,000 × 5
         x      s     h     d    hm
     <dbl>  <dbl> <int> <dbl> <int>
 1  0.577   1.15     10     1    NA
 2  0.617  -0.786     7     1    NA
 3  0.452   0.958     9     1    NA
 4  0.226   0.754     8     1    NA
 5 -0.845   0.689    10     1    NA
 6 -1.43    0.176    10     0    10
 7 -1.65    0.280    10     0    10
 8  0.0356 -0.397     8     1    NA
 9  0.184   0.261     7     1    NA
10  1.22   -1.01      2     0     2
# ℹ 990 more rows
…
glms <- d |> 
  select(loc, y, factor) |> 
  nest(data = c(y, factor)) |> 
  mutate(glm = map(data, ~update(glm0, data = .))) |> 
  mutate(coef = map(glm, tidy)) |> 
  select(-data, -glm) |> 
  unnest(coef) |> 
  filter(term == "factorSideEffect")

# What did we do?
glms |> 
  mutate_if(is.double, round, digits = 3)

# A tibble: 59 × 6
   loc   term             estimate std.error statistic p.value
   <fct> <chr>               <dbl>     <dbl>     <dbl>   <dbl>
 1 1     factorSideEffect     2.32     0.475      4.89       0
 2 2     factorSideEffect     3.64     0.644      5.64       0
 3 3     factorSideEffect     2.37     0.399      5.96       0
 4 4     factorSideEffect     2.24     0.263      8.54       0
 5 5     factorSideEffect     2.02     0.505      4.00       0
 6 6     factorSideEffect     2.49     0.571      4.36       0
 7 7     factorSideEffect     2.53     0.658      3.84       0
 8 8     factorSideEffect     1.78     0.459      3.87       0
 9 9     factorSideEffect     1.81     0.378      4.79       0
10 10    factorSideEffect     2.37     0.495      4.79       0
# ℹ 49 more rows
…
