8 Conditional Manatees | Statistical rethinking with brms, ggplot2, and the tidyverse: Second edition
…
Unlike in the text, our results suggest all the cases had Pareto \(k\) values below the 0.5 threshold. We can confirm by rank ordering them and taking a look at the top values.

tibble(k   = b8.3$criteria$loo$diagnostics$pareto_k,
       row = 1:170) %>% 
  arrange(desc(k))

## # A tibble: 170 x 2
##        k   row
##    <dbl> <int>
##  1 0.390    93
##  2 0.365    27
##  3 0.306   145
##  4 0.277   150
##  5 0.224   118
##  6 0.222     8
##  7 0.185    29
##  8 0.169    84
##  9 0.166    90
## 10 0.164    57
## # … with 160 more rows
…
