11 God Spiked the Integers | Statistical rethinking with brms, ggplot2, and the tidyverse: Second edition
…
num_weeks <- 4
y_new     <- rpois(num_weeks, lambda = 0.5 * 7)

Now tidy the data and add log_days.

(
  d <- 
  tibble(y         = c(y, y_new), 
         days      = rep(c(1, 7), times = c(num_days, num_weeks)),  # this is the exposure
         monastery = rep(0:1, times = c(num_days, num_weeks))) %>%
  mutate(log_days = log(days))
)

## # A tibble: 34 x 4
##        y  days monastery log_days
##    <int> <dbl>     <int>    <dbl>
##  1     1     1         0        0
##  2     0     1         0        0
##  3     1     1         0        0
##  4     0     1         0        0
##  5     0     1         0        0
##  6     4     1         0        0
##  7     0     1         0        0
##  8     1     1         0        0
##  9     3     1         0        0
## 10     0     1         0        0
## # … with 24 more rows
…
