13 Models With Memory | Statistical rethinking with brms, ggplot2, and the tidyverse: Second edition
…
\[p_i = \frac{\exp (\alpha_i)}{1 + \exp (\alpha_i)}\]

The model uses a logit link, and so the probability is defined by the [inv_logit_scaled()] function. (p. 411)

Although McElreath shared his set.seed() number in the last section, he didn’t share it for this bit. We’ll go ahead and carry over the one from last time. However, in a moment we’ll see this clearly wasn’t the one he used here. As a consequence, our results will deviate a bit from his.

set.seed(5005)

(
  dsim <-
  dsim %>%
  mutate(si = rbinom(n = n(), prob = inv_logit_scaled(true_a), size = ni))
)

## # A tibble: 60 × 4
##     pond    ni true_a    si
##    <int> <int>  <dbl> <int>
##  1     1     5  0.567     4
##  2     2     5  1.99      4
##  3     3     5 -0.138     3
##  4     4     5  1.86      5
##  5     5     5  3.91      5
##  6     6     5  1.95      4
##  7     7     5  1.49      4
##  8     8     5  2.52      4
##  9     9     5  2.18      3
## 10    10     5  2.05      4
## # … with 50 more rows

13.2.4 Compute the no-pooling estimates.

The no-pooling estimates (i.e., \(\alpha_{\text{tank}[i]}\)) are the results of simple algebra.

(
  dsim <-
  dsim %>%
  mutate(p_nopool = si / ni)
)

## # A tibble: 60 × 5
##     pond    ni true_a    si p_nopool
##    <int> <int>  <dbl> <int>    <dbl>
##  1     1     5  0.567     4      0.8
##  2     2     5  1.99      4      0.8
##  3     3     5 -0.138     3      0.6
##  4     4     5  1.86      5      1  
##  5     5     5  3.91      5      1  
##  6     6     5  1.95      4      0.8
##  7     7     5  1.49      4      0.8
##  8     8     5  2.52      4      0.8
##  9     9     5  2.18      3      0.6
## 10    10     5  2.05      4      0.8
## # … with 50 more rows
…
Because we only fit this model using the non-centered parameterization, we won’t be able to fully reproduce McElreath’s Figure 13.6. But we can still plot our effective sample sizes. Recall that unlike the way rethinking only reports n_eff, brms now reports both Bulk_ESS and Tail_ESS (see Vehtari et al., 2019). At the moment, brms does not offer a convenience function that allows users to collect those values in a data frame. However you can do so with help from the posterior package. For our purposes, the function of interest is summarise_draws(), which will take the output from as_draws_df() as input.

library(posterior)

as_draws_df(b13.4) %>% 
  summarise_draws()

## # A tibble: 22 × 10
##    variable                  mean median    sd   mad      q5     q95  rhat ess_bulk ess_tail
##    <chr>                    <dbl>  <dbl> <dbl> <dbl>   <dbl>   <dbl> <dbl>    <dbl>    <dbl>
##  1 b_a_Intercept            0.610  0.603 0.722 0.694 -0.599   1.80    1.00     901.    1339.
##  2 b_b_treatment1          -0.137 -0.134 0.309 0.308 -0.648   0.362   1.00    2069.    2895.
##  3 b_b_treatment2           0.390  0.392 0.306 0.309 -0.118   0.886   1.00    2079.    2871.
##  4 b_b_treatment3          -0.483 -0.477 0.306 0.308 -0.992   0.0215  1.00    2034.    2646.
##  5 b_b_treatment4           0.275  0.268 0.305 0.300 -0.231   0.776   1.00    1980.    2583.
##  6 sd_actor__a_Intercept    2.00   1.87  0.671 0.532  1.17    3.23    1.00    1262.    1735.
##  7 sd_block__a_Intercept    0.205  0.168 0.174 0.147  0.0171  0.529   1.00    1605.    1746.
##  8 r_actor__a[1,Intercept] -0.965 -0.950 0.727 0.681 -2.14    0.241   1.00    1158.    1495.
##  9 r_actor__a[2,Intercept]  4.03   3.86  1.33  1.21   2.21    6.38    1.00    1804.    2173.
## 10 r_actor__a[3,Intercept] -1.27  -1.26  0.727 0.689 -2.45   -0.0548  1.00    1069.    1683.
## # … with 12 more rows
…
And because we made the density only using the r_actor__a[5,Intercept] values (i.e., we didn’t add b_Intercept to them), the density is in a deviance-score metric.

McElreath built his own link() function in R code 13.34. With this particular model, it will be easiest for us to just work directly with post.

f <-
  post %>% 
  pivot_longer(b_b_treatment1:b_b_treatment4) %>% 
  mutate(fitted = inv_logit_scaled(b_a_Intercept + value + `r_actor__a[1,Intercept]` + `r_block__a[1,Intercept]`)) %>% 
  mutate(treatment = factor(str_remove(name, "b_b_treatment"),
                            labels = labels)) %>% 
  select(name:treatment)

f

## # A tibble: 16,000 × 4
##    name             value fitted treatment
##    <chr>            <dbl>  <dbl> <fct>    
##  1 b_b_treatment1 -0.185   0.201 R/N      
##  2 b_b_treatment2  0.522   0.337 L/N      
##  3 b_b_treatment3 -0.366   0.173 R/P      
##  4 b_b_treatment4  0.303   0.290 L/P      
##  5 b_b_treatment1 -0.180   0.325 R/N      
##  6 b_b_treatment2  0.262   0.428 L/N      
##  7 b_b_treatment3 -0.389   0.281 R/P      
##  8 b_b_treatment4  0.0104  0.368 L/P      
##  9 b_b_treatment1 -0.0977  0.524 R/N      
## 10 b_b_treatment2  0.408   0.646 L/N      
## # … with 15,990 more rows
…
f <-
  post %>% 
  slice_sample(n = n_chimps) %>% 
  # simulated chimpanzees
  mutate(a_sim = rnorm(n(), mean = b_a_Intercept, sd = sd_actor__a_Intercept)) %>% 
  pivot_longer(b_b_treatment1:b_b_treatment4) %>% 
  mutate(fitted = inv_logit_scaled(a_sim + value)) %>% 
  mutate(treatment = factor(str_remove(name, "b_b_treatment"),
                            labels = labels)) %>% 
  select(.draw:treatment)

f

## # A tibble: 400 × 6
##    .draw  a_sim name             value fitted treatment
##    <int>  <dbl> <chr>            <dbl>  <dbl> <fct>    
##  1  1496 -2.90  b_b_treatment1 -0.297  0.0392 R/N      
##  2  1496 -2.90  b_b_treatment2  0.0517 0.0546 L/N      
##  3  1496 -2.90  b_b_treatment3 -0.614  0.0288 R/P      
##  4  1496 -2.90  b_b_treatment4  0.219  0.0639 L/P      
##  5  3843 -2.64  b_b_treatment1 -0.191  0.0557 R/N      
##  6  3843 -2.64  b_b_treatment2  0.260  0.0848 L/N      
##  7  3843 -2.64  b_b_treatment3 -1.23   0.0204 R/P      
##  8  3843 -2.64  b_b_treatment4  0.444  0.100  L/P      
##  9   960  0.997 b_b_treatment1 -0.527  0.615  R/N      
## 10   960  0.997 b_b_treatment2  0.464  0.812  L/N      
## # … with 390 more rows
…
We will take a look at the multilevel coefficient plot in just a bit. Now we turn our focus to computing the MRP estimates. As a first step, we’ll follow Alexander’s lead and add a prop column to the cell_counts data, which will give us the proportions of the combinations of the other three demographic categories, within each level of age_group. We’ll save the results as age_prop.

age_prop <- 
  cell_counts %>% 
  group_by(age_group) %>% 
  mutate(prop = n / sum(n)) %>% 
  ungroup()

age_prop

## # A tibble: 6,058 × 6
##    state_name age_group decade_married educ_group     n      prop
##    <chr>      <chr>     <chr>          <chr>      <dbl>     <dbl>
##  1 alabama    25        1999           <BA        19012 0.00414  
##  2 alabama    25        2009           <BA        37488 0.00816  
##  3 alabama    25        1999           >BA          959 0.000209 
##  4 alabama    25        2009           >BA         5319 0.00116  
##  5 alabama    25        1999           BA          2986 0.000650 
##  6 alabama    25        2009           BA         14261 0.00310  
##  7 alaska     25        1999           <BA         3320 0.000723 
##  8 alaska     25        2009           <BA         7001 0.00152  
##  9 alaska     25        1999           >BA          159 0.0000346
## 10 alaska     25        2009           >BA          435 0.0000947
## # … with 6,048 more rows
…
In preparation for the MRP estimates, we’ll first wrangle cell_counts, this time grouping by state_name before computing the weights.

state_prop <- 
  cell_counts %>% 
  group_by(state_name) %>% 
  mutate(prop = n/sum(n))  %>% 
  ungroup()

state_prop

## # A tibble: 6,058 × 6
##    state_name age_group decade_married educ_group     n     prop
##    <chr>      <chr>     <chr>          <chr>      <dbl>    <dbl>
##  1 alabama    25        1999           <BA        19012 0.0187  
##  2 alabama    25        2009           <BA        37488 0.0369  
##  3 alabama    25        1999           >BA          959 0.000945
##  4 alabama    25        2009           >BA         5319 0.00524 
##  5 alabama    25        1999           BA          2986 0.00294 
##  6 alabama    25        2009           BA         14261 0.0141  
##  7 alaska     25        1999           <BA         3320 0.0225  
##  8 alaska     25        2009           <BA         7001 0.0474  
##  9 alaska     25        1999           >BA          159 0.00108 
## 10 alaska     25        2009           >BA          435 0.00295 
## # … with 6,048 more rows
…
