2 Small Worlds and Large Worlds | Statistical rethinking with brms, ggplot2, and the tidyverse: Second edition
…
Note our use of the flextable package (Gohel, 2021a, 2021b) to format the output into a nice table. We’ll get more practice with this throughout this chapter.

If you walk that out a little, you can structure the data required to approach Figure 2.2.

(
  d <-
  tibble(position = c((1:4^1) / 4^0, 
                      (1:4^2) / 4^1, 
                      (1:4^3) / 4^2),
         draw     = rep(1:3, times = c(4^1, 4^2, 4^3)),
         fill     = rep(c("b", "w"), times = c(1, 3)) %>% 
           rep(., times = c(4^0 + 4^1 + 4^2)))
)

## # A tibble: 84 x 3
##    position  draw fill 
##       <dbl> <int> <chr>
##  1     1        1 b    
##  2     2        1 w    
##  3     3        1 w    
##  4     4        1 w    
##  5     0.25     2 b    
##  6     0.5      2 w    
##  7     0.75     2 w    
##  8     1        2 w    
##  9     1.25     2 b    
## 10     1.5      2 w    
## # … with 74 more rows
…
# these will connect the dots from the second and third draws
(
  lines_2 <-
  tibble(x    = rep(((1:4^2) / 4), each = 4),
         xend = (1:4^3) / (4^2),
         y    = 2,
         yend = 3)
  )

## # A tibble: 64 x 4
##        x   xend     y  yend
##    <dbl>  <dbl> <dbl> <dbl>
##  1  0.25 0.0625     2     3
##  2  0.25 0.125      2     3
##  3  0.25 0.188      2     3
##  4  0.25 0.25       2     3
##  5  0.5  0.312      2     3
##  6  0.5  0.375      2     3
##  7  0.5  0.438      2     3
##  8  0.5  0.5        2     3
##  9  0.75 0.562      2     3
## 10  0.75 0.625      2     3
## # … with 54 more rows
…
We’ve generated the values for position (i.e., the \(x\)-axis), in such a way that they’re all justified to the right, so to speak. But we’d like to center them. For draw == 1, we’ll need to subtract 0.5 from each. For draw == 2, we need to reduce the scale by a factor of 4 and we’ll then need to reduce the scale by another factor of 4 for draw == 3. The ifelse() function will be of use for that.

d <-
  d %>% 
  mutate(denominator = ifelse(draw == 1, .5,
                              ifelse(draw == 2, .5 / 4,
                                     .5 / 4^2))) %>% 
  mutate(position = position - denominator)

d

## # A tibble: 84 x 4
##    position  draw fill  denominator
##       <dbl> <int> <chr>       <dbl>
##  1    0.5       1 b           0.5  
##  2    1.5       1 w           0.5  
##  3    2.5       1 w           0.5  
##  4    3.5       1 w           0.5  
##  5    0.125     2 b           0.125
##  6    0.375     2 w           0.125
##  7    0.625     2 w           0.125
##  8    0.875     2 w           0.125
##  9    1.12      2 b           0.125
## 10    1.38      2 w           0.125
## # … with 74 more rows
…
(
  lines_2 <-
  lines_2 %>% 
  mutate(x    = x - 0.5 / 4^1,
         xend = xend - 0.5 / 4^2)
)

## # A tibble: 64 x 4
##        x   xend     y  yend
##    <dbl>  <dbl> <dbl> <dbl>
##  1 0.125 0.0312     2     3
##  2 0.125 0.0938     2     3
##  3 0.125 0.156      2     3
##  4 0.125 0.219      2     3
##  5 0.375 0.281      2     3
##  6 0.375 0.344      2     3
##  7 0.375 0.406      2     3
##  8 0.375 0.469      2     3
##  9 0.625 0.531      2     3
## 10 0.625 0.594      2     3
## # … with 54 more rows
…
                  rep(c("w", "b"), times = c(3, 1)) %>% rep(., times = c(4^0 + 4^1 + 4^2)))) %>% 
  # now we need to shift the positions over in accordance with draw, like before
  mutate(denominator = ifelse(draw == 1, .5,
                              ifelse(draw == 2, .5 / 4,
                                     .5 / 4^2))) %>% 
  mutate(position = position - denominator) %>% 
  # here we'll add an index for which pie wedge we're working with
  mutate(pie_index = rep(letters[1:3], each = n()/3)) %>% 
  # to get the position axis correct for pie_index == "b" or "c", we'll need to offset
  mutate(position = ifelse(pie_index == "a", position,
                           ifelse(pie_index == "b", position + 4,
                                  position + 4 * 2)))
)

## # A tibble: 252 x 5
##    position  draw fill  denominator pie_index
##       <dbl> <int> <chr>       <dbl> <chr>    
##  1    0.5       1 w           0.5   a        
##  2    1.5       1 b           0.5   a        
##  3    2.5       1 b           0.5   a        
##  4    3.5       1 b           0.5   a        
##  5    0.125     2 w           0.125 a        
##  6    0.375     2 b           0.125 a        
##  7    0.625     2 b           0.125 a        
##  8    0.875     2 b           0.125 a        
##  9    1.12      2 w           0.125 a        
## 10    1.38      2 b           0.125 a        
## # … with 242 more rows
…
  lines_1 <-
  tibble(x    = rep((1:4), each = 4) %>% rep(., times = 3),
         xend = ((1:4^2) / 4)        %>% rep(., times = 3),
         y    = 1,
         yend = 2) %>% 
  mutate(x    = x - .5,
         xend = xend - .5 / 4^1) %>% 
  # here we'll add an index for which pie wedge we're working with
  mutate(pie_index = rep(letters[1:3], each = n()/3)) %>% 
  # to get the position axis correct for `pie_index == "b"` or `"c"`, we'll need to offset
  mutate(x    = move_over(position = x,    index = pie_index),
         xend = move_over(position = xend, index = pie_index))
)

## # A tibble: 48 x 5
##        x  xend     y  yend pie_index
##    <dbl> <dbl> <dbl> <dbl> <chr>    
##  1   0.5 0.125     1     2 a        
##  2   0.5 0.375     1     2 a        
##  3   0.5 0.625     1     2 a        
##  4   0.5 0.875     1     2 a        
##  5   1.5 1.12      1     2 a        
##  6   1.5 1.38      1     2 a        
##  7   1.5 1.62      1     2 a        
##  8   1.5 1.88      1     2 a        
##  9   2.5 2.12      1     2 a        
## 10   2.5 2.38      1     2 a        
## # … with 38 more rows
…
  lines_2 <-
  tibble(x    = rep(((1:4^2) / 4), each = 4)  %>% rep(., times = 3),
         xend = (1:4^3 / 4^2)                 %>% rep(., times = 3),
         y    = 2,
         yend = 3) %>% 
  mutate(x    = x - .5 / 4^1,
         xend = xend - .5 / 4^2) %>% 
  # here we'll add an index for which pie wedge we're working with
  mutate(pie_index = rep(letters[1:3], each = n()/3)) %>% 
  # to get the position axis correct for `pie_index == "b"` or `"c"`, we'll need to offset
  mutate(x    = move_over(position = x,    index = pie_index),
         xend = move_over(position = xend, index = pie_index))
)

## # A tibble: 192 x 5
##        x   xend     y  yend pie_index
##    <dbl>  <dbl> <dbl> <dbl> <chr>    
##  1 0.125 0.0312     2     3 a        
##  2 0.125 0.0938     2     3 a        
##  3 0.125 0.156      2     3 a        
##  4 0.125 0.219      2     3 a        
##  5 0.375 0.281      2     3 a        
##  6 0.375 0.344      2     3 a        
##  7 0.375 0.406      2     3 a        
##  8 0.375 0.469      2     3 a        
##  9 0.625 0.531      2     3 a        
## 10 0.625 0.594      2     3 a        
## # … with 182 more rows
…
