7 Ulysses’ Compass | Statistical rethinking with brms, ggplot2, and the tidyverse: Second edition
…
prob

## # A tibble: 28,000 × 4
##        s species      logprob  prob
##    <int> <chr>          <dbl> <dbl>
##  1     1 afarensis   -0.0543  0.947
##  2     1 africanus   -0.0255  0.975
##  3     1 habilis      0.104   1.11 
##  4     1 boisei       0.00582 1.01 
##  5     1 rudolfensis  0.104   1.11 
##  6     1 ergaster     0.123   1.13 
##  7     1 sapiens     -0.468   0.626
##  8     2 afarensis    0.852   2.34 
##  9     2 africanus    0.775   2.17 
## 10     2 habilis      0.0499  1.05 
## # … with 27,990 more rows
…
