…
}
```

Here’s what it looks like if we start with an initial `new_borns()` and
pump them into `update_population()`.

``` r
new_borns() %>% 
  update_population()
```

    ## # A tibble: 40 x 3
    ##        a     m      h
    ##    <dbl> <dbl>  <dbl>
    ##  1     2     0 -2    
    ##  2     2     0 -1.79 
    ##  3     2     0 -1.58 
    ##  4     2     0 -1.37 
    ##  5     2     0 -1.16 
    ##  6     2     0 -0.947
    ##  7     2     0 -0.737
    ##  8     2     0 -0.526
    ##  9     2     0 -0.316
    ## 10     2     0 -0.105
    ## # … with 30 more rows
…
