…
n <- 500

dat_sim <-
  tibble(u_sim = rnorm(n, mean = 0, sd = 1),
         q_sim = sample(1:4, size = n, replace = T)) %>% 
  mutate(e_sim = rnorm(n, mean = u_sim + q_sim, sd = 1)) %>% 
  mutate(w_sim = rnorm(n, mean = u_sim + 0 * e_sim, sd = 1)) %>% 
  mutate(w = standardize(w_sim),
         e = standardize(e_sim),
         q = standardize(q_sim))

dat_sim
```

    ## # A tibble: 500 x 7
    ##      u_sim q_sim e_sim   w_sim       w       e      q
    ##      <dbl> <int> <dbl>   <dbl>   <dbl>   <dbl>  <dbl>
    ##  1 -0.145      1 1.51   0.216   0.173  -0.575  -1.36 
    ##  2  0.291      1 0.664  0.846   0.584  -1.09   -1.36 
    ##  3  0.0938     3 2.44  -0.664  -0.402  -0.0185  0.428
    ##  4 -0.127      3 4.09  -0.725  -0.442   0.978   0.428
    ##  5 -0.847      4 2.62  -1.24   -0.780   0.0939  1.32 
    ##  6  0.141      4 3.54  -0.0700 -0.0146  0.651   1.32 
    ##  7  1.54       2 3.65   1.88    1.26    0.714  -0.464
    ##  8  2.74       3 4.91   2.52    1.67    1.48    0.428
    ##  9  1.55       3 4.18   0.624   0.439   1.04    0.428
    ## 10  0.462      1 0.360  0.390   0.286  -1.27   -1.36 
    ## # … with 490 more rows
…
n <- 500

dat_sim <-
  tibble(u_sim = rnorm(n, mean = 0, sd = 1),
         q_sim = sample(1:4, size = n, replace = T)) %>% 
  mutate(e_sim = rnorm(n, mean = u_sim + q_sim, sd = 1)) %>% 
  mutate(w_sim = rnorm(n, mean = -u_sim + 0.2 * e_sim, sd = 1)) %>% 
  mutate(w = standardize(w_sim),
         e = standardize(e_sim),
         q = standardize(q_sim))

dat_sim
```

    ## # A tibble: 500 x 7
    ##      u_sim q_sim e_sim  w_sim       w       e      q
    ##      <dbl> <int> <dbl>  <dbl>   <dbl>   <dbl>  <dbl>
    ##  1 -0.145      1 1.51   0.809  0.248  -0.575  -1.36 
    ##  2  0.291      1 0.664  0.396 -0.0563 -1.09   -1.36 
    ##  3  0.0938     3 2.44  -0.364 -0.615  -0.0185  0.428
    ##  4 -0.127      3 4.09   0.347 -0.0922  0.978   0.428
    ##  5 -0.847      4 2.62   0.976  0.370   0.0939  1.32 
    ##  6  0.141      4 3.54   0.357 -0.0852  0.651   1.32 
    ##  7  1.54       2 3.65  -0.466 -0.690   0.714  -0.464
    ##  8  2.74       3 4.91  -1.98  -1.80    1.48    0.428
    ##  9  1.55       3 4.18  -1.64  -1.55    1.04    0.428
    ## 10  0.462      1 0.360 -0.461 -0.686  -1.27   -1.36 
    ## # … with 490 more rows
…
