…
set.seed(15)

d <-
  tibble(s = rnorm(n, mean = 0, sd = 1)) %>% 
  mutate(h = rbinom(n, size = 10, inv_logit_scaled(s)),
         d_a = rbinom(n, size = 1, prob = .5),
         d_b = ifelse(s > 0, 1, 0)) %>%
  mutate(hm_a = ifelse(d_a == 1, NA, h),
         hm_b = ifelse(d_b == 1, NA, h))

d
```

    ## # A tibble: 100 x 6
    ##          s     h   d_a   d_b  hm_a  hm_b
    ##      <dbl> <int> <int> <dbl> <int> <int>
    ##  1  0.259      6     0     1     6    NA
    ##  2  1.83       8     0     1     8    NA
    ##  3 -0.340      4     0     0     4     4
    ##  4  0.897      6     1     1    NA    NA
    ##  5  0.488      8     1     1    NA    NA
    ##  6 -1.26       3     1     0    NA     3
    ##  7  0.0228     3     1     1    NA    NA
    ##  8  1.09       6     1     1    NA    NA
    ##  9 -0.132      6     0     0     6     6
    ## 10 -1.08       3     1     0    NA     3
    ## # … with 90 more rows
…
set.seed(501)

d <-
  tibble(x = rnorm(n, mean = 0, sd = 1),
         s = rnorm(n, mean = 0, sd = 1)) %>% 
  mutate(h = rbinom(n, size = 10, inv_logit_scaled(2 + s - 2 * x)),
         d = ifelse(x > 1, 1, 0)) %>%
  mutate(hm = ifelse(d == 1, NA, h))

d
```

    ## # A tibble: 1,000 x 5
    ##          x      s     h     d    hm
    ##      <dbl>  <dbl> <int> <dbl> <int>
    ##  1  0.577   1.15     10     0    10
    ##  2  0.617  -0.786     7     0     7
    ##  3  0.452   0.958     9     0     9
    ##  4  0.226   0.754     8     0     8
    ##  5 -0.845   0.689    10     0    10
    ##  6 -1.43    0.176    10     0    10
    ##  7 -1.65    0.280    10     0    10
    ##  8  0.0356 -0.397     8     0     8
    ##  9  0.184   0.261     7     0     7
    ## 10  1.22   -1.01      2     1    NA
    ## # … with 990 more rows
…
``` r
d <-
  d %>% 
  mutate(d = ifelse(abs(x) < 1, 1, 0)) %>%
  mutate(hm = ifelse(d == 1, NA, h))

d
```

    ## # A tibble: 1,000 x 5
    ##          x      s     h     d    hm
    ##      <dbl>  <dbl> <int> <dbl> <int>
    ##  1  0.577   1.15     10     1    NA
    ##  2  0.617  -0.786     7     1    NA
    ##  3  0.452   0.958     9     1    NA
    ##  4  0.226   0.754     8     1    NA
    ##  5 -0.845   0.689    10     1    NA
    ##  6 -1.43    0.176    10     0    10
    ##  7 -1.65    0.280    10     0    10
    ##  8  0.0356 -0.397     8     1    NA
    ##  9  0.184   0.261     7     1    NA
    ## 10  1.22   -1.01      2     0     2
    ## # … with 990 more rows
…
dat <-
  tibble(cat = rbinom(n_houses, size = 1, prob = k)) %>% 
  mutate(notes   = rpois(n_houses, lambda = alpha + beta * cat),
         r_c     = rbinom(n_houses, size = 1, prob = r)) %>% 
  mutate(cat_obs = if_else(r_c == 1, (-9L), cat))

dat
```

    ## # A tibble: 1,000 x 4
    ##      cat notes   r_c cat_obs
    ##    <int> <int> <int>   <int>
    ##  1     0     3     0       0
    ##  2     0     5     0       0
    ##  3     0    11     0       0
    ##  4     0     6     0       0
    ##  5     0     9     0       0
    ##  6     0     6     0       0
    ##  7     0     6     1      -9
    ##  8     0     6     0       0
    ##  9     1     1     0       1
    ## 10     1     3     0       1
    ## # … with 990 more rows
…
    ## # A tibble: 1 x 2
    ##   case.include     n
    ##   <lgl>        <int>
    ## 1 TRUE          6842

The data were collected in 59 locations with sample sizes ranging from
34 to 325.

``` r
d %>% 
  count(Location) %>% 
  arrange(desc(n))
```

    ## # A tibble: 59 x 2
    ##    Location                                                                                        n
    ##    <chr>                                                                                       <int>
    ##  1 University of Toronto, Scarborough                                                            325
    ##  2 MTurk India Workers                                                                           308
    ##  3 MTurk US Workers                                                                              304
    ##  4 University of Illinois at Urbana-Champaign, Champaign, IL                                     198
    ##  5 Eotvos Lorand University, in Budapest, Hungary                                                180
    ##  6 Department of Social Psychology, Tilburg University, P.O. Box 90153, Tilburg, 5000 LE, Net…   173
    ##  7 Department of Psychology, San Diego State University, San Diego, CA 92182                     171
    ##  8 Department of Psychology, Pennsylvania State University Abington, Abington, PA 19001          166
    ##  9 American University of Sharjah, United Arab Emirates                                          162
    ## 10 University of British Columbia, Vancouver, Canada                                             147
    ## # … with 49 more rows
…
# what did we do?
glms %>% 
  mutate_if(is.double, round, digits = 3)
```

    ## # A tibble: 59 x 6
    ##    loc   term             estimate std.error statistic p.value
    ##    <fct> <chr>               <dbl>     <dbl>     <dbl>   <dbl>
    ##  1 1     factorSideEffect     2.32     0.475      4.89       0
    ##  2 2     factorSideEffect     3.64     0.644      5.64       0
    ##  3 3     factorSideEffect     2.37     0.399      5.96       0
    ##  4 4     factorSideEffect     2.24     0.263      8.54       0
    ##  5 5     factorSideEffect     2.02     0.505      4.00       0
    ##  6 6     factorSideEffect     2.49     0.571      4.36       0
    ##  7 7     factorSideEffect     2.53     0.658      3.84       0
    ##  8 8     factorSideEffect     1.78     0.459      3.87       0
    ##  9 9     factorSideEffect     1.81     0.378      4.79       0
    ## 10 10    factorSideEffect     2.37     0.495      4.79       0
    ## # … with 49 more rows
…
