…
prob
```

    ## # A tibble: 28,000 x 4
    ##        s species     logprob  prob
    ##    <int> <chr>         <dbl> <dbl>
    ##  1     1 afarensis    0.389  1.48 
    ##  2     1 africanus    0.409  1.51 
    ##  3     1 habilis      0.291  1.34 
    ##  4     1 boisei       0.350  1.42 
    ##  5     1 rudolfensis  0.0436 1.04 
    ##  6     1 ergaster    -0.0679 0.934
    ##  7     1 sapiens     -0.0725 0.930
    ##  8     2 afarensis    0.448  1.56 
    ##  9     2 africanus    0.345  1.41 
    ## 10     2 habilis     -0.198  0.821
    ## # … with 27,990 more rows
…
